67180,SI,14/01/16,86017,268214,671.57,293.76,377.81
67521,SI,18/01/16,86323,270330,219.50,0.00,219.50
68143,SI,01/02/16,86854,PO11 0EW,236.64,0.00,236.64
68144,SI,01/02/16,86855,PE23 5PX,136.27,0.00,136.27
68279,SI,03/02/16,86987,M6 7QU,139.51,0.00,139.51
68338,SI,04/02/16,87050,NN5 7EN,134.64,0.00,134.64
68342,SI,04/02/16,87054,OX4 6HP,156.67,0.00,156.67
68345,SI,04/02/16,87057,FK10 1DF,147.70,0.00,147.70
68828,SI,08/02/16,87527,AB43 9JU,136.27,0.00,136.27
68829,SI,08/02/16,87528,NN3 6DU,65.27,0.00,65.27
68910,SI,08/02/16,87606,280881,157.97,0.00,157.97
69456,SI,09/02/16,88152,L26 7AJ,168.91,0.00,168.91
69462,SI,10/02/16,88155,IP18 6RU,136.27,0.00,136.27
69463,SI,10/02/16,88156,SG7 6TD,136.27,0.00,136.27
70640,SI,01/03/16,89158,295236,250.50,0.00,250.50
70652,SI,01/03/16,89170,296739,136.27,0.00,136.27
70669,SI,01/03/16,89187,293954,163.20,0.00,163.20
70831,SI,03/03/16,89346,301299,170.82,0.00,170.82
71098,SI,08/03/16,89599,301159,95.46,0.00,95.46
71560,SI,17/03/16,90271,293954,163.20,0.00,163.20
71816,SI,23/03/16,90528,317930,294.00,0.00,294.00
73510,SI,20/04/16,91847,342817,204.00,0.00,204.00
73659,SI,22/04/16,91997,344783,754.80,0.00,754.80
73935,SI,27/04/16,92252,353742,195.84,0.00,195.84
73954,SI,27/04/16,92269,348470,256.22,0.00,256.22
73997,SI,28/04/16,92312,352222,183.60,0.00,183.60
73998,SI,28/04/16,92313,347563,163.20,0.00,163.20
74055,SI,28/04/16,92370,356596,119.95,0.00,119.95
74079,SI,29/04/16,92390,351675,402.29,0.00,402.29
74260,SI,04/05/16,92511,352278,183.60,0.00,183.60
74862,SI,14/05/16,93038,366506,148.51,0.00,148.51
74962,SI,16/05/16,93197,373097,142.08,0.00,142.08
75069,SI,17/05/16,93302,371657,264.00,0.00,264.00
75071,SI,17/05/16,93304,374112,434.11,0.00,434.11
75177,SI,17/05/16,93406,353506,156.67,0.00,156.67
75285,SI,19/05/16,93505,381686,179.52,89.76,89.76
75475,SI,23/05/16,93690,381352,157.31,0.00,157.31
75743,SI,26/05/16,93951,389855,232.01,0.00,232.01
75752,SI,26/05/16,93958,387355,222.48,0.00,222.48
75975,SI,01/06/16,94141,375603,182.78,0.00,182.78
77036,SI,21/06/16,95148,410310,171.85,0.00,171.85
77129,SI,22/06/16,95241,410624,132.12,0.00,132.12
77541,SI,01/07/16,95629,427396,306.00,0.00,306.00
77793,SI,07/07/16,95871,423950,174.00,0.00,174.00
77797,SI,07/07/16,95875,408778,106.08,0.00,106.08
77831,SI,07/07/16,95908,425712,156.00,0.00,156.00
77908,SI,11/07/16,95965,411449,603.84,0.00,603.84
78015,SI,12/07/16,96071,429417,128.11,0.00,128.11
78037,SI,13/07/16,96092,427208,514.08,0.00,514.08
78264,SI,15/07/16,96313,429417,36.00,0.00,36.00
78296,SI,15/07/16,96351,408778,106.08,0.00,106.08
78509,SI,19/07/16,96545,437815,150.96,0.00,150.96
78535,SI,19/07/16,96571,432938,235.44,0.00,235.44
78587,SI,20/07/16,96620,345162,36.00,0.00,36.00
78626,SI,20/07/16,96656,441853,36.00,0.00,36.00
78865,SI,25/07/16,96877,434942,603.84,0.00,603.84
78957,SI,26/07/16,96969,447449,36.00,0.00,36.00
79070,SI,29/07/16,97084,377561,36.00,0.00,36.00
79276,SI,02/08/16,97232,451394,620.16,0.00,620.16
79291,SI,03/08/16,97243,452401,36.00,0.00,36.00
79292,SI,03/08/16,97244,456585,36.00,0.00,36.00
79293,SI,03/08/16,97245,453705,36.00,0.00,36.00
79294,SI,03/08/16,97246,448301,36.00,0.00,36.00
79295,SI,03/08/16,97247,453915,36.00,0.00,36.00
79296,SI,03/08/16,97248,440070,36.00,0.00,36.00
79297,SI,03/08/16,97249,455704,36.00,0.00,36.00
79298,SI,03/08/16,97250,452638,36.00,0.00,36.00
79336,SI,03/08/16,97293,459091,110.16,0.00,110.16
79359,SI,03/08/16,97313,452113,172.99,0.00,172.99
79380,SI,03/08/16,97333,451162,208.90,0.00,208.90
79398,SI,03/08/16,97351,430906,165.24,0.00,165.24
79421,SI,04/08/16,97374,441853,290.50,0.00,290.50
79523,SI,05/08/16,97475,457641,150.96,0.00,150.96
79546,SI,05/08/16,97497,445311,139.51,0.00,139.51
79568,SI,05/08/16,97519,457005,134.64,0.00,134.64
79587,SI,05/08/16,97538,452113,36.00,0.00,36.00
79723,SI,09/08/16,97666,459968,146.06,0.00,146.06
79807,SI,10/08/16,97743,465063,66.08,0.00,66.08
79841,SI,10/08/16,97777,464619,128.11,0.00,128.11
79863,SI,10/08/16,97799,464100,256.22,0.00,256.22
79872,SI,11/08/16,97806,466324,125.59,0.00,125.59
79937,SI,11/08/16,97871,465840,36.00,0.00,36.00
79938,SI,11/08/16,97872,460588,36.00,0.00,36.00
79939,SI,11/08/16,97873,462611,36.00,0.00,36.00
79940,SI,11/08/16,97874,461755,36.00,0.00,36.00
79943,SI,11/08/16,97877,458788,36.00,0.00,36.00
79944,SI,11/08/16,97878,460989,36.00,0.00,36.00
79945,SI,11/08/16,97879,463035,36.00,0.00,36.00
79947,SI,11/08/16,97881,460501,36.00,0.00,36.00
79949,SI,11/08/16,97883,461932,36.00,0.00,36.00
79950,SI,11/08/16,97884,457147,36.00,0.00,36.00
79951,SI,11/08/16,97885,460588,36.00,0.00,36.00
79952,SI,11/08/16,97886,460293,36.00,0.00,36.00
79953,SI,11/08/16,97887,459932,36.00,0.00,36.00
79955,SI,11/08/16,97889,458154,36.00,0.00,36.00
80002,SI,12/08/16,97923,465290,159.12,0.00,159.12
80050,SI,12/08/16,97969,454800,36.00,0.00,36.00
80052,SI,12/08/16,97971,455718,36.00,0.00,36.00
80054,SI,12/08/16,97973,458547,36.00,0.00,36.00
80055,SI,12/08/16,97974,455688,36.00,0.00,36.00
80056,SI,12/08/16,97975,466911,36.00,0.00,36.00
80058,SI,12/08/16,97977,445174,36.00,0.00,36.00
80059,SI,12/08/16,97978,440737,36.00,0.00,36.00
80094,SI,15/08/16,97985,460293,168.91,0.00,168.91
80124,SI,16/08/16,98015,394077,36.00,0.00,36.00
80126,SI,16/08/16,98017,459691,36.00,0.00,36.00
80137,SI,16/08/16,98028,459091,146.88,0.00,146.88
80243,SI,18/08/16,98133,442871,483.36,0.00,483.36
80373,SI,19/08/16,98254,470174,90.00,0.00,90.00
80428,SI,19/08/16,98306,475155,36.00,0.00,36.00
80431,SI,19/08/16,98309,472720,36.00,0.00,36.00
80433,SI,19/08/16,98311,473307,36.00,0.00,36.00
80434,SI,19/08/16,98312,373312,36.00,0.00,36.00
80435,SI,19/08/16,98313,471882,36.00,0.00,36.00
80438,SI,19/08/16,98316,468996,36.00,0.00,36.00
80440,SI,19/08/16,98318,468164,36.00,0.00,36.00
80443,SI,19/08/16,98327,434526,129.64,0.00,129.64
80447,SI,19/08/16,98332,448800,36.00,0.00,36.00
80456,SI,19/08/16,98342,400249,36.00,0.00,36.00
80461,SI,19/08/16,98349,470523,204.24,0.00,204.24
80466,SI,19/08/16,98354,377417,154.32,0.00,154.32
80475,SI,19/08/16,98364,367918,36.00,0.00,36.00
80555,SI,19/08/16,98432,467166,224.40,0.00,224.40
80570,SI,22/08/16,98446,474295,89.76,0.00,89.76
80582,SI,22/08/16,98458,476230,144.00,0.00,144.00
80584,SI,22/08/16,98460,473340,204.24,0.00,204.24
80661,SI,22/08/16,98537,472216,271.73,0.00,271.73
80674,SI,23/08/16,98550,450634,136.27,0.00,136.27
80745,SI,24/08/16,98616,474407,36.00,0.00,36.00
80747,SI,24/08/16,98618,459091,36.00,0.00,36.00
80812,SI,25/08/16,98676,440706,36.00,0.00,36.00
80816,SI,25/08/16,98680,471251,108.00,0.00,108.00
80919,SI,26/08/16,98772,472482,65.27,0.00,65.27
80941,SI,31/08/16,98950,480889,36.00,0.00,36.00
80990,SI,31/08/16,98907,476230,144.00,0.00,144.00
80993,SI,31/08/16,98905,472216,36.00,0.00,36.00
80997,SI,31/08/16,98901,478169,36.00,0.00,36.00
80999,SI,31/08/16,98899,479714,36.00,0.00,36.00
81000,SI,31/08/16,98898,482419,36.00,0.00,36.00
81006,SI,31/08/16,98892,482046,168.91,0.00,168.91
81142,SI,01/09/16,98969,484270,408.00,0.00,408.00
81187,SI,01/09/16,99012,468142,144.00,0.00,144.00
81196,SI,01/09/16,99018,484428,36.00,0.00,36.00
81197,SI,01/09/16,99019,480835,36.00,0.00,36.00
81199,SI,01/09/16,99021,481258,36.00,0.00,36.00
81305,SI,05/09/16,99121,486858,119.14,0.00,119.14
81327,SI,05/09/16,99143,486860,128.11,0.00,128.11
81377,SI,06/09/16,99189,489161,145.25,0.00,145.25
81389,SI,06/09/16,99201,473228,108.00,0.00,108.00
81428,SI,06/09/16,99237,485384,199.92,0.00,199.92
81457,SI,06/09/16,99266,484966,90.00,0.00,90.00
81470,SI,07/09/16,99279,486837,156.67,0.00,156.67
81502,SI,07/09/16,99311,485150,256.22,0.00,256.22
81560,SI,08/09/16,99350,482635,156.77,0.00,156.77
81562,SI,08/09/16,99351,482109,156.77,0.00,156.77
81566,SI,08/09/16,99353,489591,147.24,0.00,147.24
81568,SI,08/09/16,99354,489125,147.24,0.00,147.24
81570,SI,08/09/16,99355,485945,147.24,0.00,147.24
81574,SI,08/09/16,99357,488260,147.24,0.00,147.24
81579,SI,08/09/16,99359,460496,147.24,0.00,147.24
81581,SI,08/09/16,99360,493098,147.24,0.00,147.24
81583,SI,08/09/16,99361,490112,147.24,0.00,147.24
81587,SI,08/09/16,99363,489989,177.17,0.00,177.17
81593,SI,08/09/16,99366,485397,347.71,0.00,347.71
81606,SI,08/09/16,99372,488112,264.48,0.00,264.48
81608,SI,08/09/16,99373,489655,186.96,0.00,186.96
81610,SI,08/09/16,99374,488638,186.96,0.00,186.96
81612,SI,08/09/16,99375,489522,271.44,0.00,271.44
81614,SI,08/09/16,99376,491052,199.20,0.00,199.20
81616,SI,08/09/16,99377,488114,199.20,0.00,199.20
81618,SI,08/09/16,99378,494405,199.20,0.00,199.20
81620,SI,08/09/16,99379,461106,208.99,0.00,208.99
81622,SI,08/09/16,99380,479088,244.90,0.00,244.90
81624,SI,08/09/16,99381,489888,244.90,0.00,244.90
81626,SI,08/09/16,99382,480233,260.40,0.00,260.40
81628,SI,08/09/16,99383,481315,516.62,0.00,516.62
81631,SI,08/09/16,99384,489437,292.22,0.00,292.22
81633,SI,08/09/16,99385,480928,276.72,0.00,276.72
81635,SI,08/09/16,99386,489820,307.73,0.00,307.73
81637,SI,08/09/16,99387,488493,292.22,0.00,292.22
81639,SI,08/09/16,99388,489057,260.40,0.00,260.40
81641,SI,08/09/16,99389,486637,307.73,0.00,307.73
81659,SI,08/09/16,99398,488229,330.24,0.00,330.24
81672,SI,08/09/16,99404,489693,216.44,0.00,216.44
81674,SI,08/09/16,99405,489809,240.24,0.00,240.24
81694,SI,08/09/16,99415,489446,36.00,0.00,36.00
81707,SI,09/09/16,99429,486864,179.52,0.00,179.52
81742,SI,09/09/16,99462,488348,128.11,0.00,128.11
81784,SI,09/09/16,99504,489037,196.63,0.00,196.63
81794,SI,09/09/16,99514,489127,36.00,0.00,36.00
81812,SI,12/09/16,99533,490004,179.52,0.00,179.52
81814,SI,12/09/16,99535,486525,179.52,0.00,179.52
81820,SI,12/09/16,99541,487027,179.52,0.00,179.52
81831,SI,12/09/16,99552,485384,199.92,0.00,199.92
81833,SI,12/09/16,99554,485059,136.27,0.00,136.27
81845,SI,12/09/16,99566,492355,119.14,0.00,119.14
81881,SI,12/09/16,99601,496709,136.27,0.00,136.27
81882,SI,12/09/16,99602,490300,136.27,0.00,136.27
81883,SI,12/09/16,99603,483938,168.91,0.00,168.91
81899,SI,12/09/16,99619,470135,172.99,0.00,172.99
82175,SI,19/09/16,99865,494434,201.54,0.00,201.54
82217,SI,19/09/16,99906,500604,90.00,0.00,90.00
82288,SI,20/09/16,99975,WV14 7HZ,193.39,0.00,193.39
82392,SI,22/09/16,100069,476827,218.11,0.00,218.11
82496,SI,23/09/16,100172,500316,108.00,0.00,108.00
82605,SI,26/09/16,100248,500901,110.16,0.00,110.16
82655,SI,27/09/16,100297,500901,144.00,0.00,144.00
82699,SI,27/09/16,100339,500901,144.00,0.00,144.00
82759,SI,28/09/16,100395,500267,293.76,0.00,293.76
82799,SI,29/09/16,100436,504912,66.08,0.00,66.08
82826,SI,30/09/16,100461,502403,159.12,0.00,159.12
82927,SI,03/10/16,100553,479581,213.79,0.00,213.79
82953,SI,03/10/16,100579,504890,111.24,0.00,111.24
82977,SI,03/10/16,100603,502403,119.95,0.00,119.95
83017,SI,03/10/16,100643,499517,85.68,0.00,85.68
83023,SI,03/10/16,100648,503273,90.00,0.00,90.00
83061,SI,04/10/16,100683,503273,136.27,0.00,136.27
83072,SI,04/10/16,100694,503755,141.17,0.00,141.17
83084,SI,04/10/16,100706,505850,448.80,0.00,448.80
83096,SI,04/10/16,100718,505243,93.64,0.00,93.64
83164,SI,05/10/16,100785,509231,139.52,0.00,139.52
83175,SI,06/10/16,100796,505870,417.80,0.00,417.80
83177,SI,06/10/16,100797,508071,64.08,0.00,64.08
83315,SI,07/10/16,100932,504890,102.00,0.00,102.00
83326,SI,07/10/16,100943,510277,256.22,0.00,256.22
83327,SI,07/10/16,100944,474322,232.10,0.00,232.10
83350,SI,10/10/16,100954,WV14 7HZ,2610.00,0.00,2610.00
83362,SI,10/10/16,100963,502645,150.96,0.00,150.96
83380,SI,10/10/16,100981,505641,199.92,0.00,199.92
83386,SI,10/10/16,100987,505658,244.80,0.00,244.80
83387,SI,10/10/16,100988,501810,120.77,0.00,120.77
83388,SI,10/10/16,100989,510148,120.77,0.00,120.77
83390,SI,10/10/16,100991,513911,111.24,0.00,111.24
83393,SI,10/10/16,100994,512821,119.14,0.00,119.14
83394,SI,10/10/16,100995,513661,119.14,0.00,119.14
83396,SI,10/10/16,100997,512359,119.14,0.00,119.14
83399,SI,10/10/16,101000,503675,119.14,0.00,119.14
83400,SI,10/10/16,101001,506354,111.24,0.00,111.24
83401,SI,10/10/16,101002,506069,111.24,0.00,111.24
83408,SI,10/10/16,101009,500901,124.32,0.00,124.32
83435,SI,10/10/16,101036,500486,187.68,0.00,187.68
83437,SI,10/10/16,101038,504575,163.20,0.00,163.20
83483,SI,11/10/16,101081,515607,148.51,0.00,148.51
83487,SI,11/10/16,101085,514586,179.52,0.00,179.52
83489,SI,11/10/16,101087,511534,179.52,0.00,179.52
83490,SI,11/10/16,101088,511779,138.72,0.00,138.72
83493,SI,11/10/16,101091,516271,119.14,0.00,119.14
83494,SI,11/10/16,101092,515398,111.24,0.00,111.24
83495,SI,11/10/16,101093,512878,136.27,0.00,136.27
83496,SI,11/10/16,101094,513709,111.24,0.00,111.24
83497,SI,11/10/16,101095,506356,238.27,0.00,238.27
83503,SI,11/10/16,101100,505136,270.91,0.00,270.91
83508,SI,11/10/16,101104,503269,110.16,0.00,110.16
83509,SI,11/10/16,101105,513764,110.16,0.00,110.16
83520,SI,11/10/16,101116,506896,172.99,0.00,172.99
83521,SI,11/10/16,101117,509659,119.95,0.00,119.95
83527,SI,11/10/16,101123,513828,224.40,0.00,224.40
83531,SI,11/10/16,101127,513921,193.39,0.00,193.39
83534,SI,11/10/16,101130,504629,271.73,0.00,271.73
83538,SI,11/10/16,101134,504576,139.52,0.00,139.52
83555,SI,12/10/16,101149,517531,136.27,0.00,136.27
83556,SI,12/10/16,101150,516247,120.77,0.00,120.77
83557,SI,12/10/16,101151,516906,238.27,0.00,238.27
83558,SI,12/10/16,101152,510786,111.24,0.00,111.24
83559,SI,12/10/16,101153,517170,119.14,0.00,119.14
83561,SI,12/10/16,101155,507524,182.78,0.00,182.78
83601,SC,12/10/16,101194,503755,-141.17,0.00,-141.17
83603,SI,12/10/16,101196,WV14 7HZ,450.00,0.00,450.00
83622,SI,13/10/16,101210,516309,119.14,0.00,119.14
83624,SI,13/10/16,101212,509028,119.14,0.00,119.14
83625,SI,13/10/16,101213,515226,111.24,0.00,111.24
83627,SI,13/10/16,101215,513817,111.24,0.00,111.24
83658,SI,13/10/16,101245,503694,85.68,0.00,85.68
83659,SI,13/10/16,101246,513142,36.00,0.00,36.00
83675,SI,14/10/16,101253,WV14 7HZ,689.52,0.00,689.52
83685,SI,14/10/16,101259,503566,313.34,0.00,313.34
83695,SI,14/10/16,101269,514798,159.12,0.00,159.12
83699,SI,14/10/16,101273,519661,159.12,0.00,159.12
83707,SI,14/10/16,101281,505691,136.27,0.00,136.27
83708,SI,14/10/16,101282,516698,136.27,0.00,136.27
83709,SI,14/10/16,101283,512964,136.27,0.00,136.27
83710,SI,14/10/16,101284,515040,360.68,0.00,360.68
83712,SI,14/10/16,101285,512542,241.54,0.00,241.54
83713,SI,14/10/16,101286,513159,119.14,0.00,119.14
83714,SI,14/10/16,101287,510315,111.24,0.00,111.24
83718,SI,14/10/16,101291,516374,119.14,0.00,119.14
83720,SI,14/10/16,101293,516964,111.24,0.00,111.24
83721,SI,14/10/16,101294,515228,111.24,0.00,111.24
83725,SI,14/10/16,101298,473733,372.96,0.00,372.96
83734,SI,14/10/16,101307,504355,146.88,0.00,146.88
83758,SI,14/10/16,101331,491936,36.00,0.00,36.00
83761,SI,14/10/16,101333,518975,183.60,0.00,183.60
83762,SI,14/10/16,101334,508080,240.72,0.00,240.72
83763,SI,17/10/16,101335,WV14 7HZ,2780.10,0.00,2780.10
83777,SI,17/10/16,101336,WV14 7HZ,8520.00,0.00,8520.00
83805,SI,17/10/16,101362,507002,159.12,0.00,159.12
83813,SI,17/10/16,101370,500441,199.92,0.00,199.92
83814,SI,17/10/16,101371,513531,120.77,0.00,120.77
83816,SI,17/10/16,101373,518325,120.77,0.00,120.77
83817,SI,17/10/16,101374,520363,136.27,0.00,136.27
83820,SI,17/10/16,101377,515885,222.48,0.00,222.48
83822,SI,17/10/16,101378,517482,119.14,0.00,119.14
83824,SI,17/10/16,101380,507844,357.41,0.00,357.41
83826,SI,17/10/16,101382,513603,111.24,0.00,111.24
83829,SI,17/10/16,101385,513601,111.24,0.00,111.24
83830,SI,17/10/16,101386,516102,119.14,0.00,119.14
83838,SC,17/10/16,101394,499517,-85.68,0.00,-85.68
83839,SC,17/10/16,101395,510438,-148.51,0.00,-148.51
83840,SI,18/10/16,101396,517503,155.04,0.00,155.04
83841,SI,18/10/16,101397,515822,155.04,0.00,155.04
83885,SI,18/10/16,101441,504256,224.40,0.00,224.40
83927,SI,18/10/16,101483,521330,36.00,0.00,36.00
83936,SI,18/10/16,101492,516404,64.08,0.00,64.08
83952,SI,18/10/16,101506,518856,120.77,0.00,120.77
83953,SI,18/10/16,101507,516901,136.27,0.00,136.27
83955,SI,18/10/16,101509,521207,111.24,0.00,111.24
83957,SI,18/10/16,101511,531821,111.24,0.00,111.24
83959,SI,18/10/16,101513,520849,111.24,0.00,111.24
83960,SI,18/10/16,101514,519128,111.24,0.00,111.24
83985,SI,18/10/16,101539,515215,119.95,0.00,119.95
84015,SI,19/10/16,101567,17.10.16,8764.88,0.00,8764.88
84072,SI,19/10/16,101568,18.10.16,6279.72,0.00,6279.72
84119,SI,19/10/16,101576,517192,136.27,0.00,136.27
84121,SI,19/10/16,101578,519867,111.24,0.00,111.24
84122,SI,19/10/16,101579,520483,119.14,0.00,119.14
84123,SI,19/10/16,101580,509534,111.24,0.00,111.24
84124,SI,19/10/16,101581,518825,119.14,0.00,119.14
84125,SI,19/10/16,101582,516730,111.24,0.00,111.24
84150,SC,19/10/16,101605,502674,-224.40,0.00,-224.40
84151,SI,19/10/16,101606,19.10.16,4593.29,0.00,4593.29
84191,SI,20/10/16,101611,518012,118.32,0.00,118.32
84204,SI,20/10/16,101624,519408,111.24,0.00,111.24
84215,SI,20/10/16,101635,20/10/2016,11012.39,0.00,11012.39
84309,SI,21/10/16,101652,517198,119.14,0.00,119.14
84310,SI,21/10/16,101653,518366,119.14,0.00,119.14
84312,SI,21/10/16,101655,518578,111.24,0.00,111.24
84313,SI,21/10/16,101656,514487,111.24,0.00,111.24
84341,SI,21/10/16,101680,WV14 7HZ,1485.65,0.00,1485.65
84469,SI,24/10/16,101696,518815,241.54,0.00,241.54
84471,SI,24/10/16,101697,519891,120.77,0.00,120.77
84473,SI,24/10/16,101699,515913,119.14,0.00,119.14
84475,SI,24/10/16,101701,518776,119.14,0.00,119.14
84477,SI,24/10/16,101703,517058,119.14,0.00,119.14
84478,SI,24/10/16,101704,519370,111.24,0.00,111.24
84479,SI,24/10/16,101705,512022,111.24,0.00,111.24
84480,SI,24/10/16,101706,515788,111.24,0.00,111.24
84482,SI,24/10/16,101708,511217,222.48,0.00,222.48
84516,SI,24/10/16,101742,537270,64.08,0.00,64.08
84525,SC,24/10/16,101751,496138,-306.00,0.00,-306.00
84589,SI,25/10/16,101781,519633,136.27,0.00,136.27
84591,SI,25/10/16,101783,519162,155.04,0.00,155.04
84683,SI,26/10/16,101813,519727,120.77,0.00,120.77
84684,SI,26/10/16,101814,521261,111.24,0.00,111.24
84685,SI,26/10/16,101815,510959,119.14,0.00,119.14
84695,SI,26/10/16,101825,WV14 7HZ,7152.00,0.00,7152.00
84697,SI,27/10/16,101826,26.10.16,8454.88,0.00,8454.88
84766,SI,27/10/16,101838,541401,64.08,0.00,64.08
84767,SI,27/10/16,101839,542156,64.08,0.00,64.08
84830,SI,28/10/16,101849,WV14 7HZ,1499.10,0.00,1499.10
84833,SI,28/10/16,101850,WV14 7HZ,1259.70,0.00,1259.70
84893,SI,28/10/16,101854,518514,111.24,0.00,111.24
84906,SC,28/10/16,101867,499393,-164.83,0.00,-164.83
84942,SC,03/11/16,101952,03/11/2016,-3700.12,0.00,-3700.12
84993,SI,31/10/16,101875,518058,111.24,0.00,111.24
84999,SI,31/10/16,101879,510855,120.00,0.00,120.00
85006,SI,31/10/16,101886,541177,64.08,0.00,64.08
85007,SI,31/10/16,101887,515343,64.08,0.00,64.08
85008,SI,31/10/16,101888,539531,64.08,0.00,64.08
85016,SI,31/10/16,101896,549157,82.51,0.00,82.51
85078,SI,02/11/16,101917,WV14 7HZ,1692.90,0.00,1692.90
85152,SC,02/11/16,101931,506655,-156.67,0.00,-156.67
85154,SI,03/11/16,101933,WV14 7HZ,1533.30,0.00,1533.30
85157,SI,03/11/16,101935,343587,69.12,0.00,69.12
85159,SI,03/11/16,101937,347481,64.08,0.00,64.08
85291,SC,03/11/16,101964,322165,-136.27,0.00,-136.27
85309,SI,04/11/16,101975,544062,64.08,0.00,64.08
85408,SI,07/11/16,101992,06.11.16,8294.66,0.00,8294.66
85467,SI,07/11/16,101999,544724,64.08,0.00,64.08
85468,SI,07/11/16,102000,546477,114.24,0.00,114.24
85605,SI,09/11/16,102017,547888,64.08,0.00,64.08
85610,SI,09/11/16,102022,296739,138.67,0.00,138.67
85613,SI,09/11/16,102024,317930,261.94,0.00,261.94
85615,SC,09/11/16,102025,293954,-163.20,0.00,-163.20
85616,SC,09/11/16,102026,293954,-163.20,0.00,-163.20
85617,SC,09/11/16,102027,295236,-250.50,0.00,-250.50
85638,SI,09/11/16,102043,351675,343.54,0.00,343.54
85648,SI,09/11/16,102050,381352,151.69,0.00,151.69
85651,SI,09/11/16,102052,389855,214.87,0.00,214.87
85653,SI,10/11/16,102053,WV14 7HZ,2359.80,0.00,2359.80
85747,SI,10/11/16,102066,459968,114.24,0.00,114.24
85751,SI,10/11/16,102069,465290,119.14,0.00,119.14
85754,SI,10/11/16,102072,474295,64.08,0.00,64.08
85828,SI,10/11/16,102076,WV14 7HZ,666.90,0.00,666.90
85834,SI,10/11/16,102082,547271,64.08,0.00,64.08
85838,SI,10/11/16,102086,WV14 7HZ,1715.70,0.00,1715.70
85840,SI,10/11/16,102087,20.10.16,36.00,0.00,36.00
85841,SI,11/11/16,102088,WV14 7HZ,1812.60,0.00,1812.60
85843,SC,11/11/16,102089,24.10.16,-167.76,0.00,-167.76
85844,SC,11/11/16,102090,17.10.16,-151.44,0.00,-151.44
85845,SC,11/11/16,102091,17.10.16,-140.83,0.00,-140.83
85846,SI,11/11/16,102092,17.10.16,36.00,0.00,36.00
85847,SC,11/11/16,102093,451162,-208.90,0.00,-208.90
85848,SC,11/11/16,102094,451162,-208.90,0.00,-208.90
85849,SI,11/11/16,102095,451162,36.00,0.00,36.00
85850,SC,11/11/16,102096,430906,-165.24,0.00,-165.24
85851,SC,11/11/16,102097,445311,-139.51,0.00,-139.51
85852,SC,11/11/16,102098,464100,-256.22,0.00,-256.22
85853,SC,11/11/16,102099,466324,-125.59,0.00,-125.59
85854,SC,11/11/16,102100,466324,-125.59,0.00,-125.59
85855,SC,11/11/16,102101,499499,-240.72,0.00,-240.72
85922,SI,14/11/16,102117,WV14 7HZ,1881.00,0.00,1881.00
85924,SI,14/11/16,102118,WV14 7HZ,1692.90,0.00,1692.90
85983,SC,14/11/16,102123,490845,-328.03,0.00,-328.03
86018,SI,14/11/16,102157,14.11.16,8262.44,0.00,8262.44
86081,SI,14/11/16,102158,WV14 7HZ,1653.00,0.00,1653.00
86155,SC,17/11/16,102165,561008,-193.39,0.00,-193.39
86158,SI,16/11/16,102168,548218,250.50,0.00,250.50
86231,SI,17/11/16,102177,17.11.2016,8927.32,0.00,8927.32
86293,SI,17/11/16,102178,547331,64.08,0.00,64.08
86318,SI,18/11/16,102198,17/11/2016,252.00,0.00,252.00
86323,SI,18/11/16,102201,18/11/2016,7979.78,0.00,7979.78
86397,SI,18/11/16,102212,18/11/2016,168.00,0.00,168.00
86416,SA,22/11/16,bacs,,-100000.00,-69120.42,-30879.58
86432,SI,21/11/16,102214,20.11.16,6335.04,0.00,6335.04
86484,SI,21/11/16,102226,486545,36.00,0.00,36.00
86485,SC,21/11/16,102227,486545,-250.50,0.00,-250.50
86499,SI,21/11/16,102241,572360,168.91,0.00,168.91
86578,SI,22/11/16,102245,22.11.16,7839.51,0.00,7839.51
86714,SI,23/11/16,102262,WV14 7HZ,1328.10,0.00,1328.10
86805,SI,25/11/16,102292,25.11.16,12280.92,0.00,12280.92
86913,SI,28/11/16,102293,25.11.16,1392.08,0.00,1392.08
86922,SI,28/11/16,102294,27.11.16,10147.87,0.00,10147.87
87007,SI,28/11/16,102311,28.11.16,15865.46,0.00,15865.46
87126,SC,28/11/16,102312,28.10.16,-122.88,0.00,-122.88
87127,SC,28/11/16,102313,31.10.16,-140.83,0.00,-140.83
87128,SI,29/11/16,102314,WV14 7HZ,1202.10,0.00,1202.10
87144,SI,29/11/16,102328,29.11.16,12444.93,0.00,12444.93
87240,SI,30/11/16,102329,WV14 7HZ,1710.00,0.00,1710.00
87241,SI,30/11/16,102330,WV14 7HZ,1641.60,0.00,1641.60
87251,SI,30/11/16,102334,30.11.16,12678.66,0.00,12678.66
87387,SC,01/12/16,102368,17.11.16,-139.20,0.00,-139.20
87388,SI,01/12/16,102369,17.11.16,36.00,0.00,36.00
87390,SI,01/12/16,102371,01.12.16,15396.83,0.00,15396.83
87510,SI,02/12/16,102382,02.12.16 Load 1,11096.50,0.00,11096.50
87583,SI,02/12/16,102383,02.12.16 Load 2,8507.12,0.00,8507.12
87650,SA,02/12/16,bacs,,-100000.00,0.00,-100000.00
87655,SI,05/12/16,102396,04.12.16,9509.76,0.00,9509.76
87725,SI,05/12/16,102400,WV14 7HZ,1170.00,0.00,1170.00
87726,SI,05/12/16,102401,05.12.16,12135.41,0.00,12135.41
87813,SC,05/12/16,102402,09.11.16,-167.76,0.00,-167.76
87814,SC,05/12/16,102403,14.11.16,-253.34,0.00,-253.34
87828,SI,05/12/16,102416,WV14 7HZ,1413.60,0.00,1413.60
87869,SI,05/12/16,102456,Friday 2nd Load,240.00,0.00,240.00
87879,SI,06/12/16,102457,WV14 7HZ,2154.60,0.00,2154.60
87881,SI,06/12/16,102458,06.12.16,11681.39,0.00,11681.39
87967,SI,06/12/16,102459,WV14 7HZ,1265.40,0.00,1265.40
87970,SI,07/12/16,102460,WV14 7HZ,1111.50,0.00,1111.50
87974,SI,07/12/16,102464,07.12.16,12452.93,0.00,12452.93
88076,SI,08/12/16,102466,08.12.16,13172.79,0.00,13172.79
88195,SI,08/12/16,102489,WV14 7HZ,9306.00,0.00,9306.00
88203,SI,09/12/16,102492,09.12.16 Load 2,8415.65,0.00,8415.65
88253,SI,09/12/16,102493,09.12.16,13141.94,0.00,13141.94
88369,SA,08/12/16,bacs,,-70000.00,0.00,-70000.00
88370,SA,13/12/16,bacs,,-70000.00,0.00,-70000.00
88448,SA,19/12/16,bacs,,-95000.00,0.00,-95000.00
88453,SA,22/12/16,bacs,,-100000.00,0.00,-100000.00
88456,SI,12/12/16,102520,09.12.16 2nd Load,504.00,0.00,504.00
88474,SI,12/12/16,102521,11.12.16,10190.35,0.00,10190.35
88537,SC,12/12/16,102522,518216,-163.20,0.00,-163.20
88538,SC,12/12/16,102523,521649,-40.08,0.00,-40.08
88539,SC,12/12/16,102524,577255,-72.62,0.00,-72.62
88540,SI,12/12/16,102525,577255,36.00,0.00,36.00
88541,SC,12/12/16,102526,NW9 7AW,-86.16,0.00,-86.16
88542,SI,12/12/16,102527,NW9 7AW,36.00,0.00,36.00
88543,SC,12/12/16,102528,GL17 0QB,-313.01,0.00,-313.01
88544,SI,12/12/16,102529,GL17 0QB,36.00,0.00,36.00
88545,SC,12/12/16,102530,RM12 5RA,-130.22,0.00,-130.22
88546,SI,12/12/16,102531,578461,165.24,0.00,165.24
88547,SI,12/12/16,102532,575036,201.96,0.00,201.96
88548,SI,12/12/16,102533,575064,142.10,0.00,142.10
88549,SI,12/12/16,102534,587266,201.96,0.00,201.96
88550,SI,12/12/16,102535,577471,138.71,0.00,138.71
88551,SI,12/12/16,102536,569016,138.71,0.00,138.71
88552,SI,12/12/16,102537,580157,157.97,0.00,157.97
88553,SI,12/12/16,102538,581417,157.97,0.00,157.97
88554,SI,12/12/16,102539,585280,204.24,0.00,204.24
88555,SI,12/12/16,102540,580133,204.24,0.00,204.24
88556,SI,12/12/16,102541,575487,204.24,0.00,204.24
88557,SI,12/12/16,102542,583330,204.24,0.00,204.24
88558,SI,12/12/16,102543,578534,204.24,0.00,204.24
88559,SI,12/12/16,102544,587801,250.50,0.00,250.50
88560,SI,12/12/16,102545,589684,95.46,0.00,95.46
88561,SI,12/12/16,102546,585597,110.15,0.00,110.15
88562,SI,12/12/16,102547,578541,79.76,0.00,79.76
88563,SI,12/12/16,102548,589096,79.76,0.00,79.76
88564,SI,12/12/16,102549,577606,79.76,0.00,79.76
88565,SI,12/12/16,102550,587268,97.10,0.00,97.10
88566,SI,12/12/16,102551,585693,72.62,0.00,72.62
88567,SI,12/12/16,102552,585697,72.62,0.00,72.62
88568,SI,12/12/16,102553,583638,72.62,0.00,72.62
88569,SI,12/12/16,102554,588810,72.62,0.00,72.62
88570,SI,12/12/16,102555,583895,72.62,0.00,72.62
88571,SI,12/12/16,102556,589190,72.62,0.00,72.62
88572,SI,12/12/16,102557,578732,74.90,0.00,74.90
88573,SI,13/12/16,102558,12.12.16,17075.68,0.00,17075.68
88673,SI,13/12/16,102559,WV14 7HZ 12.12.16,9745.20,0.00,9745.20
88675,SI,13/12/16,102560,WV14 7HZ 12.12.16,8056.80,0.00,8056.80
88678,SI,13/12/16,102561,13.12.16,19957.58,0.00,19957.58
88797,SI,14/12/16,102565,06.12.16 102458,1788.68,0.00,1788.68
88815,SI,14/12/16,102566,08.12.16  102466,855.93,0.00,855.93
88820,SI,14/12/16,102567,14.12.16,16781.80,0.00,16781.80
88927,SI,14/12/16,102568,577497,204.24,0.00,204.24
88928,SI,14/12/16,102569,588788,79.76,0.00,79.76
88929,SI,14/12/16,102570,593327,72.62,0.00,72.62
88930,SI,14/12/16,102571,589877,72.62,0.00,72.62
88931,SI,14/12/16,102572,578448,130.56,0.00,130.56
88932,SI,14/12/16,102573,429216,36.00,0.00,36.00
88933,SI,15/12/16,102579,592076,165.24,0.00,165.24
88934,SI,15/12/16,102580,579226,454.74,0.00,454.74
88936,SI,15/12/16,102581,591917,204.24,0.00,204.24
88937,SI,15/12/16,102582,585631,250.50,0.00,250.50
88938,SI,15/12/16,102583,590369,250.50,0.00,250.50
88939,SI,15/12/16,102584,577323,66.08,0.00,66.08
88940,SI,15/12/16,102585,591095,95.46,0.00,95.46
88941,SI,15/12/16,102586,580547,79.76,0.00,79.76
88942,SI,15/12/16,102587,594388,79.76,0.00,79.76
88943,SI,15/12/16,102588,593672,183.60,0.00,183.60
88944,SI,15/12/16,102589,593115,61.20,0.00,61.20
88945,SI,15/12/16,102590,593905,72.62,0.00,72.62
88946,SI,15/12/16,102591,592493,72.62,0.00,72.62
88947,SI,15/12/16,102592,595195,72.62,0.00,72.62
88948,SI,15/12/16,102593,595192,72.62,0.00,72.62
88949,SI,15/12/16,102594,579542,85.68,0.00,85.68
88950,SI,15/12/16,102595,590807,74.90,0.00,74.90
88951,SI,15/12/16,102596,593558,93.64,0.00,93.64
88952,SC,15/12/16,102597,PR3 5AZ,-271.73,0.00,-271.73
88953,SI,15/12/16,102598,PR3 5AZ,48.00,0.00,48.00
88954,SC,15/12/16,102599,ST6 5NJ,-318.24,0.00,-318.24
88955,SI,15/12/16,102600,15.12.16,20925.36,0.00,20925.36
89080,SC,15/12/16,102601,M19 2RY 06.12.16,-514.56,0.00,-514.56
89081,SI,16/12/16,102611,16.12.16 Load 1,14818.82,0.00,14818.82
89168,SI,16/12/16,102612,16.12.16 Load 2,8904.62,0.00,8904.62
89220,SI,16/12/16,102614,577350,142.10,0.00,142.10
89221,SI,16/12/16,102615,593259,314.15,0.00,314.15
89223,SI,16/12/16,102616,596919,164.40,0.00,164.40
89224,SI,16/12/16,102617,587398,250.50,0.00,250.50
89225,SI,16/12/16,102618,585188,250.50,0.00,250.50
89226,SI,16/12/16,102619,586401,66.08,0.00,66.08
89227,SI,16/12/16,102620,591707,286.38,0.00,286.38
89228,SI,16/12/16,102621,579184,62.42,0.00,62.42
89229,SI,16/12/16,102622,587787,79.76,0.00,79.76
89230,SI,16/12/16,102623,590014,72.62,0.00,72.62
89231,SI,16/12/16,102624,578539,85.68,0.00,85.68
89232,SI,16/12/16,102625,593086,71.39,0.00,71.39
89233,SI,16/12/16,102626,586737,71.39,0.00,71.39
89234,SI,19/12/16,102628,18.12.16,14474.42,0.00,14474.42
89323,SI,19/12/16,102629,16.12.16 Load 2,432.00,0.00,432.00
89341,SI,19/12/16,102636,19.12.16,19579.80,0.00,19579.80
89454,SI,20/12/16,102641,576098,112.36,0.00,112.36
89455,SI,20/12/16,102642,588680,204.24,0.00,204.24
89456,SI,20/12/16,102643,594071,250.50,0.00,250.50
89457,SI,20/12/16,102644,573578,66.08,0.00,66.08
89458,SI,20/12/16,102645,569824,95.46,0.00,95.46
89459,SI,20/12/16,102646,590055,110.15,0.00,110.15
89460,SI,20/12/16,102647,595995,72.62,0.00,72.62
89461,SI,20/12/16,102648,585466,85.68,0.00,85.68
89462,SI,20/12/16,102649,589649,85.68,0.00,85.68
89463,SI,20/12/16,102650,583050,243.12,0.00,243.12
89465,SC,20/12/16,102651,10.12.16 LS16 7SF,-531.60,0.00,-531.60
89466,SC,20/12/16,102652,21.11.16 WD19 4QB,-194.40,0.00,-194.40
89467,SI,20/12/16,102653,596769,75.60,0.00,75.60
89468,SI,20/12/16,102654,20.12.16,20316.52,0.00,20316.52
89593,SI,21/12/16,102657,WV14 7HZ,8113.20,0.00,8113.20
89596,SI,21/12/16,102658,WV14 7HZ,11977.20,0.00,11977.20
89598,SI,21/12/16,102659,WV14 7HZ,8334.00,0.00,8334.00
89600,SI,21/12/16,102663,21.12.16,22381.24,0.00,22381.24
89735,SI,22/12/16,102665,21.12.16 Joseph Del,2435.40,0.00,2435.40
89749,SI,22/12/16,102671,22.12.16,25482.14,0.00,25482.14
89909,SC,22/12/16,102672,593558,-93.64,0.00,-93.64
89910,SI,22/12/16,102673,593558,36.00,0.00,36.00
89911,SC,22/12/16,102674,579079,-95.46,0.00,-95.46
89912,SI,22/12/16,102675,579079,36.00,0.00,36.00
89913,SC,22/12/16,102676,577067,-204.24,0.00,-204.24
89914,SI,22/12/16,102677,577067,36.00,0.00,36.00
89915,SI,22/12/16,102678,593886,79.76,0.00,79.76
89916,SI,22/12/16,102679,576131,250.50,0.00,250.50
89917,SI,22/12/16,102680,596701,166.80,0.00,166.80
89918,SI,22/12/16,102681,601133,99.60,0.00,99.60
89919,SC,22/12/16,102682,13.12.16 SK3 9NB,-144.00,0.00,-144.00
89920,SI,22/12/16,102683,13.12.16 SK3 9NB,210.00,0.00,210.00
89922,SI,22/12/16,102684,24.11.16 PR8 4NB,96.00,0.00,96.00
89923,SC,22/12/16,102685,09.12.16 BL6 5DF,-132.67,0.00,-132.67
89924,SI,22/12/16,102686,13.12.16 NW7 3EG,36.00,0.00,36.00
89925,SI,23/12/16,102691,23.12.16 Load 1 SAT,14205.72,0.00,14205.72
90004,SI,23/12/16,102692,23.12.16 Load 2 Tues Delivery,9341.16,0.00,9341.16
90063,SI,23/12/16,102693,23.12.16 Load 3 Wed Delivery,6704.56,0.00,6704.56
90102,SI,23/12/16,102695,559224,85.68,0.00,85.68
90103,SI,23/12/16,102696,595329,204.24,0.00,204.24
90104,SI,23/12/16,102697,590888,72.62,0.00,72.62
90105,SI,23/12/16,102698,592540,79.76,0.00,79.76
90106,SI,23/12/16,102699,588312,93.64,0.00,93.64
90107,SI,23/12/16,102700,582996,204.24,0.00,204.24
90108,SI,23/12/16,102701,588364,61.20,0.00,61.20
90109,SI,23/12/16,102702,580397,114.00,0.00,114.00
90110,SI,23/12/16,102703,597634,290.82,0.00,290.82
90111,SI,23/12/16,102704,599811,250.50,0.00,250.50
90112,SC,23/12/16,102705,1.12.16 LE7 9HJ,-270.00,0.00,-270.00
90113,SC,23/12/16,102706,13.12.16 PL4 0ST,-174.00,0.00,-174.00
90114,SI,23/12/16,102707,13.12.16 PL4 0ST,24.00,0.00,24.00
90122,SI,28/12/16,102715,28.12.16,13317.00,0.00,13317.00
90204,SI,29/12/16,102718,23.12.16 Friday 1st Load,384.00,0.00,384.00
90220,SI,29/12/16,102719,WV14 9EE 23.12.16,9506.40,0.00,9506.40
90224,SI,29/12/16,102720,WV14 7HZ 18.12.16,10035.60,0.00,10035.60
90226,SI,29/12/16,102721,WV14 7HZ 19.12.16,9850.80,0.00,9850.80
90228,SI,29/12/16,102722,29.12.16,17019.14,0.00,17019.14
90335,SC,29/12/16,102723,12.12.16 SO18 2EH,-82.08,0.00,-82.08
90336,SI,29/12/16,102724,601051,148.80,0.00,148.80
90337,SI,29/12/16,102725,583158,148.80,0.00,148.80
90338,SI,29/12/16,102726,598967,102.00,0.00,102.00
90339,SI,29/12/16,102727,602257,127.20,0.00,127.20
90340,SI,29/12/16,102728,599398,75.60,0.00,75.60
90341,SI,29/12/16,102729,600437,127.20,0.00,127.20
90342,SI,29/12/16,102730,600180,90.00,0.00,90.00
90353,SI,30/12/16,102741,30.12.16 Load 1,12733.80,0.00,12733.80
90419,SI,30/12/16,102742,30.12.16 Load 2,8723.40,0.00,8723.40
90474,SI,30/12/16,102744,604676,139.20,0.00,139.20
90475,SI,30/12/16,102745,606454,148.80,0.00,148.80
90476,SI,30/12/16,102746,601986,148.80,0.00,148.80
90477,SI,30/12/16,102747,606816,196.80,0.00,196.80
90478,SI,30/12/16,102748,607949,72.00,0.00,72.00
90479,SI,30/12/16,102749,606836,95.46,0.00,95.46
90480,SI,30/12/16,102750,606338,95.46,0.00,95.46
90481,SI,30/12/16,102751,606166,110.15,0.00,110.15
90482,SI,30/12/16,102752,606703,110.15,0.00,110.15
90483,SI,30/12/16,102753,601484,110.15,0.00,110.15
90484,SI,30/12/16,102754,601950,84.00,0.00,84.00
90485,SI,30/12/16,102755,607006,102.00,0.00,102.00
90486,SI,30/12/16,102756,600580,75.60,0.00,75.60
90487,SI,30/12/16,102757,604583,63.60,0.00,63.60
90488,SI,30/12/16,102758,599394,63.60,0.00,63.60
90489,SC,30/12/16,102759,441557,-193.39,0.00,-193.39
90490,SI,30/12/16,102760,441557,284.40,0.00,284.40
90498,SI,03/01/17,102761,03.01.17,16123.80,0.00,16123.80
90599,SI,03/01/17,102762,WV14 9EE,10186.80,0.00,10186.80
90602,SI,03/01/17,102763,WV14 9EE,9984.00,0.00,9984.00
90609,SC,03/01/17,102768,16.12.16  HX6 4DS,-174.00,0.00,-174.00
90610,SI,03/01/17,102769,16.12.16  HX6 4DS,60.00,0.00,60.00
90611,SC,03/01/17,102770,12.12.16  CV22 7SL,-141.60,0.00,-141.60
90612,SC,03/01/17,102771,23.12.16  CH2 2LW,-174.00,0.00,-174.00
90613,SI,03/01/17,102772,609504,115.20,0.00,115.20
90614,SI,03/01/17,102773,608825,136.80,0.00,136.80
90615,SI,03/01/17,102774,603837,136.80,0.00,136.80
90616,SI,03/01/17,102775,604125,139.20,0.00,139.20
90617,SI,03/01/17,102776,605152,176.40,0.00,176.40
90618,SI,03/01/17,102777,607494,176.40,0.00,176.40
90619,SI,03/01/17,102778,605252,212.40,0.00,212.40
90620,SI,03/01/17,102779,600449,148.80,0.00,148.80
90621,SI,03/01/17,102780,607204,148.80,0.00,148.80
90622,SI,03/01/17,102781,608863,148.80,0.00,148.80
90623,SI,03/01/17,102782,612541,148.80,0.00,148.80
90624,SI,03/01/17,102783,607208,148.80,0.00,148.80
90625,SI,03/01/17,102784,606217,188.40,0.00,188.40
90626,SI,03/01/17,102785,607884,188.40,0.00,188.40
90627,SI,03/01/17,102786,607442,95.46,0.00,95.46
90628,SI,03/01/17,102787,602635,110.15,0.00,110.15
90629,SI,03/01/17,102788,605713,84.00,0.00,84.00
90630,SI,03/01/17,102789,602557,84.00,0.00,84.00
90631,SI,03/01/17,102790,607475,186.00,0.00,186.00
90633,SI,03/01/17,102791,606180,63.60,0.00,63.60
90634,SI,03/01/17,102792,599212,63.60,0.00,63.60
90635,SI,03/01/17,102793,608260,75.60,0.00,75.60
90636,SI,03/01/17,102794,608236,75.60,0.00,75.60
90637,SI,03/01/17,102795,607625,90.00,0.00,90.00
90638,SI,03/01/17,102796,604630,90.00,0.00,90.00
90639,SI,03/01/17,102797,601861,90.00,0.00,90.00
90640,SI,03/01/17,102798,607059,90.00,0.00,90.00
90641,SI,03/01/17,102799,604616,75.60,0.00,75.60
90642,SI,03/01/17,102800,603781,75.60,0.00,75.60
90643,SI,03/01/17,102801,608036,75.60,0.00,75.60
90644,SI,03/01/17,102802,605953,105.60,0.00,105.60
90645,SI,04/01/17,102803,04.01.16,18391.20,0.00,18391.20
90758,SI,04/01/17,102804,612517,142.80,0.00,142.80
90759,SI,04/01/17,102805,608248,148.80,0.00,148.80
90760,SI,04/01/17,102806,610882,148.80,0.00,148.80
90761,SI,04/01/17,102807,609614,148.80,0.00,148.80
90762,SI,04/01/17,102808,596143,188.40,0.00,188.40
90763,SI,04/01/17,102809,609103,188.40,0.00,188.40
90764,SI,04/01/17,102810,607154,196.80,0.00,196.80
90765,SI,04/01/17,102811,612639,110.15,0.00,110.15
90766,SI,04/01/17,102812,611709,84.00,0.00,84.00
90767,SI,04/01/17,102813,604065,84.00,0.00,84.00
90768,SI,04/01/17,102814,603620,63.60,0.00,63.60
90769,SI,04/01/17,102815,608601,75.60,0.00,75.60
90770,SI,04/01/17,102816,607507,75.60,0.00,75.60
90771,SI,04/01/17,102817,608986,75.60,0.00,75.60
90772,SI,04/01/17,102818,605772,90.00,0.00,90.00
90773,SI,04/01/17,102819,606807,75.60,0.00,75.60
90774,SI,04/01/17,102820,603774,151.20,0.00,151.20
90787,SI,05/01/17,102833,05.01.2017,18721.80,0.00,18721.80
90905,SI,06/01/17,102834,612511,122.40,0.00,122.40
90906,SI,06/01/17,102835,609465,148.80,0.00,148.80
90907,SI,06/01/17,102836,609457,148.80,0.00,148.80
90908,SI,06/01/17,102837,614272,148.80,0.00,148.80
90909,SI,06/01/17,102838,605820,148.80,0.00,148.80
90910,SI,06/01/17,102839,607005,188.40,0.00,188.40
90911,SI,06/01/17,102840,610922,188.40,0.00,188.40
90912,SI,06/01/17,102841,609338,95.46,0.00,95.46
90913,SI,06/01/17,102842,608909,95.46,0.00,95.46
90914,SI,06/01/17,102843,610405,95.46,0.00,95.46
90915,SI,06/01/17,102844,608436,84.00,0.00,84.00
90916,SI,06/01/17,102845,608107,102.00,0.00,102.00
90917,SI,06/01/17,102846,612987,63.60,0.00,63.60
90918,SI,06/01/17,102847,608898,75.60,0.00,75.60
90919,SI,06/01/17,102848,604697,75.60,0.00,75.60
90920,SI,06/01/17,102849,614182,75.60,0.00,75.60
90921,SI,06/01/17,102850,607078,75.60,0.00,75.60
90931,SI,06/01/17,102857,614077,115.20,0.00,115.20
90932,SI,06/01/17,102858,618441,136.80,0.00,136.80
90933,SI,06/01/17,102859,613234,433.20,0.00,433.20
90935,SI,06/01/17,102860,613421,148.80,0.00,148.80
90936,SI,06/01/17,102861,605937,148.80,0.00,148.80
90937,SI,06/01/17,102862,607460,148.80,0.00,148.80
90938,SI,06/01/17,102863,615713,148.80,0.00,148.80
90939,SI,06/01/17,102864,613709,188.40,0.00,188.40
90940,SI,06/01/17,102865,608161,72.00,0.00,72.00
90941,SI,06/01/17,102866,610356,95.46,0.00,95.46
90942,SI,06/01/17,102867,606760,132.18,0.00,132.18
90943,SI,06/01/17,102868,618446,90.00,0.00,90.00
90944,SI,06/01/17,102869,614062,153.60,0.00,153.60
90946,SI,06/01/17,102870,606681,75.60,0.00,75.60
90947,SI,06/01/17,102871,612830,75.60,0.00,75.60
90948,SC,06/01/17,102872,20.12.16 ME10 4JD,-226.80,0.00,-226.80
90949,SC,06/01/17,102873,596143,-188.40,0.00,-188.40
90950,SI,06/01/17,102874,596143,48.00,0.00,48.00
90951,SC,06/01/17,102875,20.12.16 SL1 8BF,-174.00,0.00,-174.00
90953,SI,06/01/17,102877,06.01.2016 Load 1,14940.00,0.00,14940.00
91050,SI,06/01/17,102878,06.01.2017 Load 2,8090.70,0.00,8090.70
91099,SA,05/01/17,bacs,,-80000.00,0.00,-80000.00